*** Darwin 10x10 ***
Turn = 0.
  0123456789
0 f.........
1 ..........
2 ..........
3 ...hh.....
4 ...hh.....
5 ..........
6 ..........
7 .......f..
8 ..........
9 ..........

Turn = 1.
  0123456789
0 f.........
1 ..........
2 ...h......
3 .....h....
4 ..h.......
5 ....h.....
6 ..........
7 .......f..
8 ..........
9 ..........

Turn = 2.
  0123456789
0 f.........
1 ...h......
2 ..........
3 ......h...
4 .h........
5 ..........
6 ....h.....
7 .......f..
8 ..........
9 ..........

Turn = 3.
  0123456789
0 f..h......
1 ..........
2 ..........
3 .......h..
4 h.........
5 ..........
6 ..........
7 ....h..f..
8 ..........
9 ..........

Turn = 4.
  0123456789
0 f..h......
1 ..........
2 ..........
3 ........h.
4 h.........
5 ..........
6 ..........
7 .......f..
8 ....h.....
9 ..........

Turn = 5.
  0123456789
0 f..h......
1 ..........
2 ..........
3 .........h
4 h.........
5 ..........
6 ..........
7 .......f..
8 ..........
9 ....h.....

*** Darwin 12x9 ***
Turn = 0.
  012345678
0 t........
1 .........
2 .........
3 ..h......
4 .........
5 ....r....
6 ........t
7 .........
8 .........
9 .........
0 .........
1 .........

Turn = 1.
  012345678
0 t........
1 .........
2 .........
3 ...h.....
4 ....r....
5 .........
6 ........t
7 .........
8 .........
9 .........
0 .........
1 .........

Turn = 2.
  012345678
0 t........
1 .........
2 .........
3 ....r....
4 ....r....
5 .........
6 ........t
7 .........
8 .........
9 .........
0 .........
1 .........

Turn = 3.
  012345678
0 t........
1 .........
2 .........
3 ....rr...
4 .........
5 .........
6 ........t
7 .........
8 .........
9 .........
0 .........
1 .........

Turn = 4.
  012345678
0 t........
1 .........
2 ....r....
3 ......r..
4 .........
5 .........
6 ........t
7 .........
8 .........
9 .........
0 .........
1 .........

Turn = 5.
  012345678
0 t........
1 ....r....
2 .........
3 .......r.
4 .........
5 .........
6 ........t
7 .........
8 .........
9 .........
0 .........
1 .........

*** Darwin 12x12 ***
Turn = 0.
  012345678901
0 ............
1 ............
2 .f..........
3 .......r....
4 ......f.....
5 ............
6 ............
7 ............
8 ............
9 ...t......h.
0 ............
1 r...........

Turn = 3.
  012345678901
0 ............
1 ............
2 .f..........
3 ............
4 ......f.....
5 ............
6 .......r..h.
7 ............
8 r...........
9 ...t........
0 ............
1 ............

Turn = 6.
  012345678901
0 ............
1 ............
2 .f..........
3 ..........h.
4 ......f.....
5 r...........
6 ............
7 ............
8 ............
9 ...t...r....
0 ............
1 ............

Turn = 9.
  012345678901
0 ..........h.
1 ............
2 rf..........
3 ............
4 ......f.....
5 ............
6 ............
7 ............
8 ............
9 ...t........
0 ............
1 .......r....

*** Darwin 12x90 ***
Turn = 0.
  012345678901234567890123456789012345678901234567890123456789012345678901234567890123456789
0 ............t...................t.........................................................
1 ..........................................................................................
2 ................................r..............................r..........................
3 ..........................................................................................
4 .......................t..............................................r...................
5 .....................................................................................f....
6 ...........................................................................r..............
7 ..........................................................................................
8 ................................................................t.....................r...
9 ..........................................................................................
0 ..........................................................................................
1 ..........................................................................................

Turn = 100.
  012345678901234567890123456789012345678901234567890123456789012345678901234567890123456789
0 ............t................................................r.......r....................
1 ..........................................................................................
2 ..........................................................................................
3 ..........................................................................................
4 .......................t..................................................................
5 .....................................................................................f....
6 ..........................................................................................
7 ..........................................................................................
8 ..........................................................................................
9 ..........................................................................................
0 .......................................................r..................................
1 ............r....rr.......................................r...............................

Turn = 200.
  012345678901234567890123456789012345678901234567890123456789012345678901234567890123456789
0 ....................r....r.................r..............................................
1 ..........................................................................................
2 ..........................................................................................
3 ..........................................................................................
4 .......................t..................................................................
5 .....................................................................................f....
6 ...................................r......................................................
7 ..........................................................................................
8 ..........................................................................................
9 ..........................................................................................
0 ..........................................................................................
1 ................r..........r..r..........r................................................

Turn = 300.
  012345678901234567890123456789012345678901234567890123456789012345678901234567890123456789
0 .............................r.......................r...r.......................r........
1 ..........................................................................................
2 ..........................................................................................
3 ..........................................................................................
4 .......................t..................................................................
5 ..........................................................................................
6 ..........................................................................................
7 .........................................................................................r
8 ..........................................................................................
9 ......................................................................r...................
0 ..........................................................................................
1 .......................................r..r........r......................................

Turn = 400.
  012345678901234567890123456789012345678901234567890123456789012345678901234567890123456789
0 ........rr.................................r..............................................
1 ........................r.................................................................
2 ..........................................................................................
3 ..........................................................................................
4 .......................t..................................................................
5 ..........................................................................................
6 ..........................................................................................
7 ..........................................................................................
8 ..........................................................................................
9 ..........................................................................................
0 ..........................................................................................
1 .r..................r...........r...................................r....................r

Turn = 500.
  012345678901234567890123456789012345678901234567890123456789012345678901234567890123456789
0 .................................................................r.......................r
1 ..........................................................................................
2 ..........................................................................................
3 ..........................................................................................
4 .......................t...................................r..............................
5 .........r................................................................................
6 ..........r...............................................................................
7 .............................................r............................................
8 ...............................................................r..........................
9 ..............................................................r...........................
0 ..........................................................................................
1 ...................................................r......................................

Turn = 600.
  012345678901234567890123456789012345678901234567890123456789012345678901234567890123456789
0 ..................r............................................r.........................r
1 ..................r.......................................................................
2 .........................................................................................r
3 ..........................................................................................
4 ..........................................................................................
5 ..........................................................................................
6 r.........................................................................................
7 ..........................................................................................
8 ..........................................................................................
9 ..........................................................................................
0 ..........................................................................................
1 ....r...r.......r.............r...........................................................

Turn = 700.
  012345678901234567890123456789012345678901234567890123456789012345678901234567890123456789
0 ............r..................................................r...........r...........r.r
1 ..........................................................................................
2 ........................................................................................r.
3 ..........................................................................................
4 ..........................................................................................
5 ..........................................................................................
6 ..........................................................................................
7 ..........................................................................................
8 ..........................................................................................
9 ..........................................................................................
0 r.........................................................................................
1 ....................r..r..............................................................r...

Turn = 800.
  012345678901234567890123456789012345678901234567890123456789012345678901234567890123456789
0 ...r..........................r......................r...............................r....
1 ............r.............................................................................
2 ..........................................................................................
3 ..........................................................................................
4 ..........................................................................................
5 ..........................................................................................
6 r.r.......................................................................................
7 ..........................................................................................
8 ..........................................................................................
9 ..........................................................................................
0 ..........................................................................................
1 ......r.......r.........................r.................................................

Turn = 900.
  012345678901234567890123456789012345678901234567890123456789012345678901234567890123456789
0 .................r.....................................................r..................
1 ..........................................................................................
2 .........................................................................................r
3 ..........................................................................................
4 ..........................................................................................
5 ..........................................................................................
6 ...........................................rr.............................................
7 ..........................................................................................
8 ..........................................................................................
9 ..........................................................................................
0 ............................................................r.......................r.....
1 ............................r...............r.....................................r.......

Turn = 1000.
  012345678901234567890123456789012345678901234567890123456789012345678901234567890123456789
0 ....................................r...........................r.........................
1 ..........................................................................................
2 ..........................................................................................
3 ...............r..........................................................................
4 ................r.........................................................................
5 ..............r................r..........................................................
6 ..........................................................................................
7 ..........................................................................................
8 ..........................................................................................
9 ..........................................................................................
0 .........rr...............................................................................
1 ........r.................r...............................................................

*** Darwin 5x5 ***
Turn = 0.
  01234
0 hhh..
1 .....
2 .....
3 ..t..
4 ....t

Turn = 2.
  01234
0 h.h..
1 .....
2 ..h..
3 ..t..
4 ....t

Turn = 4.
  01234
0 h...h
1 .....
2 ..h..
3 ..t..
4 ....t

Turn = 6.
  01234
0 h...h
1 .....
2 ..t..
3 ..t..
4 ....t

Turn = 8.
  01234
0 h...h
1 .....
2 ..t..
3 ..t..
4 ....t

Turn = 10.
  01234
0 h...h
1 .....
2 ..t..
3 ..t..
4 ....t

*** Darwin 8x10 ***
Turn = 0.
  0123456789
0 ..........
1 ..r.......
2 ..r.......
3 .......h..
4 ..........
5 ...r......
6 ..........
7 ...rr.....

Turn = 10.
  0123456789
0 ....r.....
1 ..r.......
2 .........r
3 ..........
4 r.........
5 r.........
6 r.........
7 ..........

Turn = 20.
  0123456789
0 r.....r...
1 ....r.....
2 ..........
3 ........rr
4 .........r
5 ..........
6 ..........
7 ..........

Turn = 30.
  0123456789
0 ........r.
1 ..........
2 ........rr
3 r.........
4 ..........
5 .........r
6 ..........
7 ...r......

Turn = 40.
  0123456789
0 ..........
1 ..........
2 ..........
3 ..........
4 ..........
5 r.......r.
6 ....r....r
7 .....r..r.

Turn = 50.
  0123456789
0 ..........
1 r.......r.
2 .........r
3 ..........
4 ..........
5 .........r
6 ..........
7 .....r.r..

*** Darwin 20x20 ***
Turn = 0.
  01234567890123456789
0 .h..................
1 ................r...
2 ....................
3 ....................
4 ....t...............
5 ....................
6 .t..................
7 ...................h
8 ....................
9 ..........h.........
0 ....................
1 ....................
2 ................t...
3 ....................
4 ..............f.....
5 ....................
6 ...r................
7 .....h..............
8 ....................
9 ....................

Turn = 4.
  01234567890123456789
0 ....................
1 ............r.......
2 ....................
3 ....................
4 .h..t...............
5 ....................
6 .t..................
7 ...................h
8 ....................
9 ......h.............
0 ....................
1 ....................
2 ................t...
3 ....................
4 ..............f.....
5 ....................
6 .......r............
7 ....................
8 ....................
9 .....h..............

Turn = 8.
  01234567890123456789
0 ....................
1 ........r...........
2 ....................
3 ....................
4 ....t...............
5 .t..................
6 .t..................
7 ...................h
8 ....................
9 ..h.................
0 ....................
1 ....................
2 ................t...
3 ....................
4 ..............f.....
5 ....................
6 ...........r........
7 ....................
8 ....................
9 .....h..............

Turn = 12.
  01234567890123456789
0 ....................
1 ....r...............
2 ....................
3 ....................
4 ....t...............
5 .t..................
6 .t..................
7 ...................h
8 ....................
9 h...................
0 ....................
1 ....................
2 ................t...
3 ....................
4 ..............f.....
5 ....................
6 ...............r....
7 ....................
8 ....................
9 .....h..............

Turn = 16.
  01234567890123456789
0 ....................
1 r...................
2 ....................
3 ....................
4 ....t...............
5 .t..................
6 .t..................
7 ...................h
8 ....................
9 h...................
0 ....................
1 ....................
2 ................t...
3 ....................
4 ..............f.....
5 ....................
6 ...................r
7 ....................
8 ....................
9 .....h..............

Turn = 20.
  01234567890123456789
0 .r..................
1 ....................
2 ....................
3 ....................
4 ....t...............
5 .t..................
6 .t..................
7 ...................h
8 ....................
9 h...................
0 ....................
1 ....................
2 ................t...
3 ...................r
4 ..............f.....
5 ....................
6 ....................
7 ....................
8 ....................
9 .....h..............

*** Darwin 40x3 ***
Turn = 0.
  012
0 ht.
1 ...
2 ...
3 ...
4 ...
5 ...
6 ...
7 ...
8 ...
9 ...
0 .ht
1 ...
2 ...
3 ...
4 ...
5 .h.
6 ...
7 ...
8 ...
9 ...
0 ..h
1 ...
2 ...
3 ...
4 ...
5 h..
6 ...
7 ...
8 ...
9 ...
0 .ht
1 ...
2 ...
3 ...
4 ...
5 ..h
6 ...
7 ...
8 ...
9 ...

Turn = 5.
  012
0 .t.
1 ...
2 ...
3 ...
4 ...
5 h..
6 ...
7 ...
8 ...
9 ...
0 ..t
1 ...
2 .h.
3 .h.
4 ...
5 ...
6 ...
7 ...
8 ...
9 ...
0 ...
1 ...
2 ...
3 ...
4 ...
5 .hh
6 ...
7 ...
8 ...
9 ...
0 h.t
1 ...
2 ...
3 ...
4 ...
5 ...
6 ...
7 ...
8 ...
9 ..h

Turn = 10.
  012
0 .t.
1 ...
2 ...
3 ...
4 ...
5 ...
6 ...
7 ...
8 ...
9 ...
0 h.t
1 ...
2 .h.
3 .h.
4 ...
5 ...
6 ...
7 ...
8 ...
9 ...
0 .h.
1 ...
2 ...
3 ...
4 ...
5 ...
6 ...
7 ...
8 ...
9 ..t
0 ..t
1 ...
2 ...
3 ...
4 ...
5 h..
6 ...
7 ...
8 ...
9 ..h

Turn = 15.
  012
0 .t.
1 ...
2 ...
3 ...
4 ...
5 ...
6 ...
7 ...
8 ...
9 ...
0 ..t
1 ...
2 .h.
3 .h.
4 ...
5 hh.
6 ...
7 ...
8 ...
9 ...
0 ...
1 ...
2 ...
3 ...
4 ...
5 ...
6 ...
7 ...
8 ...
9 ..t
0 ..t
1 ...
2 ...
3 ...
4 ...
5 ...
6 ...
7 ...
8 ...
9 h.h

Turn = 20.
  012
0 .t.
1 ...
2 ...
3 ...
4 ...
5 ...
6 ...
7 ...
8 ...
9 ...
0 ..t
1 ...
2 .h.
3 .h.
4 .h.
5 ...
6 ...
7 ...
8 ...
9 ...
0 h..
1 ...
2 ...
3 ...
4 ...
5 ...
6 ...
7 ...
8 ...
9 ..t
0 ..t
1 ...
2 ...
3 ...
4 ...
5 ...
6 ...
7 ...
8 ...
9 h.h

Turn = 25.
  012
0 .t.
1 ...
2 ...
3 ...
4 ...
5 ...
6 ...
7 ...
8 ...
9 ...
0 ..t
1 ...
2 .h.
3 .h.
4 .h.
5 ...
6 ...
7 ...
8 ...
9 ...
0 ...
1 ...
2 ...
3 ...
4 ...
5 h..
6 ...
7 ...
8 ...
9 ..t
0 ..t
1 ...
2 ...
3 ...
4 ...
5 ...
6 ...
7 ...
8 ...
9 h.h

Turn = 30.
  012
0 .t.
1 ...
2 ...
3 ...
4 ...
5 ...
6 ...
7 ...
8 ...
9 ...
0 ..t
1 ...
2 .h.
3 .h.
4 .h.
5 ...
6 ...
7 ...
8 ...
9 ...
0 ...
1 ...
2 ...
3 ...
4 ...
5 ...
6 ...
7 ...
8 ...
9 ..t
0 h.t
1 ...
2 ...
3 ...
4 ...
5 ...
6 ...
7 ...
8 ...
9 h.h

*** Darwin 2x2 ***
Turn = 0.
  01
0 h.
1 f.

Turn = 1.
  01
0 .h
1 f.

Turn = 2.
  01
0 .h
1 f.

Turn = 3.
  01
0 .h
1 f.

Turn = 4.
  01
0 .h
1 f.

Turn = 5.
  01
0 .h
1 f.

*** Darwin 5x5 ***
Turn = 0.
  01234
0 fffh.
1 .....
2 .....
3 .....
4 rrr..

Turn = 5.
  01234
0 rrr..
1 rrr..
2 .....
3 .....
4 ...h.

Turn = 10.
  01234
0 rr.r.
1 r....
2 .r..r
3 .....
4 ...h.

*** Darwin 40x40 ***
Turn = 0.
  0123456789012345678901234567890123456789
0 ........................................
1 ..r...................................h.
2 ........................................
3 ........................................
4 ....................................f...
5 ..........................h.............
6 ........................................
7 ........................................
8 ........................................
9 ........................................
0 ..........t.............................
1 ........................................
2 ........................................
3 ........................................
4 ........................................
5 ........................................
6 ........................................
7 ........................................
8 ........................................
9 ........................................
0 ........................................
1 ........................................
2 ........................................
3 ........................................
4 ........................................
5 ........................................
6 ........................................
7 ........................................
8 ........................................
9 .......................r................
0 ........................................
1 ........................t...............
2 ........................................
3 ........................................
4 ........................................
5 ........................................
6 ........................................
7 ........................................
8 ........................................
9 ........................................

Turn = 10.
  0123456789012345678901234567890123456789
0 ..........r.............................
1 .......................................h
2 ........................................
3 ........................................
4 ....................................f...
5 ........................................
6 ........................................
7 ........................................
8 ........................................
9 ........................................
0 ..........t.............................
1 ........................................
2 ........................................
3 ........................................
4 ........................................
5 ..........................h.............
6 ........................................
7 ........................................
8 ........................................
9 ........................................
0 ........................................
1 ........................................
2 ........................................
3 ........................................
4 ........................................
5 ........................................
6 ........................................
7 ........................................
8 ........................................
9 .............r..........................
0 ........................................
1 ........................t...............
2 ........................................
3 ........................................
4 ........................................
5 ........................................
6 ........................................
7 ........................................
8 ........................................
9 ........................................

Turn = 20.
  0123456789012345678901234567890123456789
0 ....................r...................
1 .......................................h
2 ........................................
3 ........................................
4 ....................................f...
5 ........................................
6 ........................................
7 ........................................
8 ........................................
9 ........................................
0 ..........t.............................
1 ........................................
2 ........................................
3 ........................................
4 ........................................
5 ........................................
6 ........................................
7 ........................................
8 ........................................
9 ........................................
0 ........................................
1 ........................................
2 ........................................
3 ........................................
4 ........................................
5 ..........................h.............
6 ........................................
7 ........................................
8 ........................................
9 ...r....................................
0 ........................................
1 ........................t...............
2 ........................................
3 ........................................
4 ........................................
5 ........................................
6 ........................................
7 ........................................
8 ........................................
9 ........................................

*** Darwin 20x20 ***
Turn = 0.
  01234567890123456789
0 ....................
1 ....................
2 ....................
3 ..t.................
4 ....................
5 ........f...........
6 ....................
7 .......h............
8 ....r...............
9 ....................
0 ....................
1 ....................
2 ....................
3 ....................
4 ....................
5 ....................
6 ....................
7 ....................
8 ....................
9 .................r..

Turn = 2.
  01234567890123456789
0 ....................
1 ....................
2 ....................
3 ..t.................
4 ....................
5 .......hf...........
6 ....................
7 ....................
8 ......r.............
9 ....................
0 ....................
1 ....................
2 ....................
3 ....................
4 ....................
5 ....................
6 ....................
7 .................r..
8 ....................
9 ....................

Turn = 4.
  01234567890123456789
0 ....................
1 ....................
2 ....................
3 ..t....h............
4 ....................
5 ........f...........
6 ....................
7 ....................
8 ........r...........
9 ....................
0 ....................
1 ....................
2 ....................
3 ....................
4 ....................
5 .................r..
6 ....................
7 ....................
8 ....................
9 ....................

Turn = 6.
  01234567890123456789
0 ....................
1 .......h............
2 ....................
3 ..t.................
4 ....................
5 ........f...........
6 ....................
7 ....................
8 ..........r.........
9 ....................
0 ....................
1 ....................
2 ....................
3 .................r..
4 ....................
5 ....................
6 ....................
7 ....................
8 ....................
9 ....................

Turn = 8.
  01234567890123456789
0 .......h............
1 ....................
2 ....................
3 ..t.................
4 ....................
5 ........f...........
6 ....................
7 ....................
8 ............r.......
9 ....................
0 ....................
1 .................r..
2 ....................
3 ....................
4 ....................
5 ....................
6 ....................
7 ....................
8 ....................
9 ....................

Turn = 10.
  01234567890123456789
0 .......h............
1 ....................
2 ....................
3 ..t.................
4 ....................
5 ........f...........
6 ....................
7 ....................
8 ..............r.....
9 .................r..
0 ....................
1 ....................
2 ....................
3 ....................
4 ....................
5 ....................
6 ....................
7 ....................
8 ....................
9 ....................

*** Darwin 10x10 ***
Turn = 0.
  0123456789
0 r.........
1 ..........
2 ..r.......
3 ..........
4 ....t.....
5 ..........
6 ......h...
7 ..........
8 ........h.
9 ..........

Turn = 2.
  0123456789
0 .r........
1 ..........
2 r.........
3 ..........
4 ....t.h...
5 ..........
6 ..........
7 ..........
8 ..........
9 ........h.

Turn = 4.
  0123456789
0 ...r......
1 ..........
2 ......h...
3 r.........
4 ....t.....
5 ..........
6 ..........
7 ..........
8 ..........
9 ........h.

Turn = 6.
  0123456789
0 .....rh...
1 ..........
2 ..........
3 ..........
4 ....t.....
5 r.........
6 ..........
7 ..........
8 ..........
9 ........h.

Turn = 8.
  0123456789
0 .....r.r..
1 ..........
2 ..........
3 ..........
4 ....t.....
5 ..........
6 ..........
7 r.........
8 ..........
9 ........h.

Turn = 10.
  0123456789
0 .........r
1 ..........
2 .....r....
3 ..........
4 ....t.....
5 ..........
6 ..........
7 ..........
8 ..........
9 r.......h.

*** Darwin 3x3 ***
Turn = 0.
  012
0 t.h
1 .f.
2 .r.

Turn = 1.
  012
0 t.h
1 .f.
2 r..

Turn = 2.
  012
0 t.h
1 .f.
2 r..

Turn = 3.
  012
0 t.h
1 rf.
2 ...

Turn = 4.
  012
0 r.h
1 rf.
2 ...

Turn = 5.
  012
0 r.h
1 rf.
2 ...

Turn = 6.
  012
0 .rh
1 rr.
2 ...

*** Darwin 6x8 ***
Turn = 0.
  01234567
0 .f......
1 .......f
2 ...hh...
3 ....r...
4 ...t....
5 ........

Turn = 2.
  01234567
0 .f......
1 .......f
2 ..h.....
3 ...h..r.
4 ...t....
5 ........

Turn = 4.
  01234567
0 .f......
1 .......f
2 h.......
3 ...t...r
4 ...t....
5 ........

Turn = 6.
  01234567
0 .f......
1 .......f
2 h.......
3 ...t....
4 ...t....
5 .......r

*** Darwin 20x15 ***
Turn = 0.
  012345678901234
0 ..........t....
1 ...............
2 ...............
3 ............h..
4 ...............
5 .........r.....
6 ...............
7 ....r..........
8 ...............
9 ...............
0 ...............
1 ........t......
2 ...............
3 ...............
4 ...............
5 ...............
6 ........t......
7 ...............
8 ...............
9 ...............

Turn = 20.
  012345678901234
0 ...........r...
1 ...............
2 ...............
3 ............r.h
4 ...............
5 ...............
6 ...............
7 ...............
8 ...............
9 ...............
0 ...............
1 ........tt.....
2 ...............
3 ...............
4 ...............
5 ...............
6 ........t......
7 ...............
8 ...............
9 ...............

Turn = 40.
  012345678901234
0 .....r.........
1 ...............
2 ...............
3 ..............h
4 ...............
5 ...............
6 ...............
7 ...............
8 ...............
9 ...............
0 ...............
1 ........tt.....
2 ...............
3 ...............
4 ...............
5 ...............
6 ........t......
7 ...............
8 ...............
9 ..............r

Turn = 60.
  012345678901234
0 .....r........r
1 ...............
2 ..............r
3 ...............
4 ...............
5 ...............
6 ...............
7 ...............
8 ...............
9 ...............
0 ...............
1 ........tt.....
2 ...............
3 ...............
4 ...............
5 ...............
6 ........t......
7 ...............
8 ...............
9 ...............

Turn = 80.
  012345678901234
0 .............r.
1 ...............
2 ...............
3 ...............
4 r..............
5 ...............
6 ...............
7 ...............
8 ...............
9 ...............
0 ...............
1 ........tt.....
2 ...............
3 ...............
4 ..............r
5 ...............
6 ........t......
7 ...............
8 ...............
9 ...............

Turn = 100.
  012345678901234
0 ...............
1 ...............
2 r..............
3 ...............
4 ...............
5 ...............
6 ...............
7 ...............
8 ...............
9 ...............
0 ...............
1 ........tt.....
2 ...............
3 ...............
4 ...............
5 ...............
6 r.......t......
7 ...............
8 ...............
9 r..............

*** Darwin 10x10 ***
Turn = 0.
  0123456789
0 ..........
1 t.........
2 hh........
3 .h........
4 ..........
5 ..........
6 ..........
7 ..........
8 ..........
9 ..........

Turn = 3.
  0123456789
0 ..........
1 t.........
2 th........
3 ..........
4 ..........
5 ..........
6 .h........
7 ..........
8 ..........
9 ..........

Turn = 6.
  0123456789
0 ..........
1 t.........
2 tt........
3 ..........
4 ..........
5 ..........
6 ..........
7 ..........
8 ..........
9 .h........

*** Darwin 90x90 ***
Turn = 0.
  012345678901234567890123456789012345678901234567890123456789012345678901234567890123456789
0 ..........................................................................................
1 ..........................................................................................
2 ..........................................................................................
3 ..........................................................................................
4 ..........................................................................................
5 ..........................................................................................
6 ..........................................................................................
7 ..........................................................................................
8 ..........................................................................................
9 ..........................................................................................
0 ..........................................................................................
1 ..........................................................................................
2 ..........................................................................................
3 ..........................................................................................
4 ..........................................................................................
5 ..........................................................................................
6 ..........................................................................................
7 ..........................................................................................
8 ..........................................................................................
9 ..........................................................................................
0 ..........................................................................................
1 ..........................................................................................
2 ..........................................................................................
3 ..........................................................................................
4 ..........................................................................................
5 ..........................................................................................
6 ..........................................................................................
7 ..........................................................................................
8 ..........................................................................................
9 ..........................................................................................
0 ..........................................................................................
1 ..........................................................................................
2 ..........................................................................................
3 ..........................................................................................
4 ..........................................................................................
5 ..........................................................................................
6 ..........................................................................................
7 ..........................................................................................
8 ..........................................................................................
9 ..........................................................................................
0 ..........................................................................................
1 ..........................................................................................
2 ..........................................................................................
3 ..........................................................................................
4 ..........................................................................................
5 ..........................................................................................
6 ..........................................................................................
7 ..........................................................................................
8 ..........................................................................................
9 ..........................................................................................
0 ..........................................................................................
1 ..........................................................................................
2 ..........................................................................................
3 ..........................................................................................
4 ..........................................................................................
5 ..........................................................................................
6 ..........................................................................................
7 ..........................................................................................
8 ..........................................................................................
9 ..........................................................................................
0 ..........................................................................................
1 ..........................................................................................
2 ............r.............................................................................
3 ..........................................................................................
4 ..........................................................................................
5 ..........................................................................................
6 ..........................................................................................
7 ..........................................................................................
8 ..........................................................................................
9 ..........................................................................................
0 ..........................................................................................
1 ..............................h...........................................................
2 ..........................................................................................
3 ..........................................................................................
4 ..........................................................................................
5 ..........................................................................................
6 ..........................................................................................
7 ..........................................................................................
8 ..........................................................................................
9 ..........................................................................................
0 ..........................................................................................
1 ..........................................................................................
2 ................................h.........................................................
3 ..........................................................................................
4 ..........................................................................................
5 ..........................................................................................
6 ..........................................................................................
7 ..........................................................................................
8 ..........................................................................................
9 ..........................................................................................

Turn = 123.
  012345678901234567890123456789012345678901234567890123456789012345678901234567890123456789
0 ..........................................................................................
1 ..........................................................................................
2 ..........................................................................................
3 ..........................................................................................
4 ..........................................................................................
5 ..........................................................................................
6 ..........................................................................................
7 ..........................................................................................
8 ..........................................................................................
9 ..........................................................................................
0 r.........................................................................................
1 ..........................................................................................
2 ..........................................................................................
3 ..........................................................................................
4 ..........................................................................................
5 ..........................................................................................
6 ..........................................................................................
7 ..........................................................................................
8 ..........................................................................................
9 ..........................................................................................
0 ..........................................................................................
1 ..........................................................................................
2 ..........................................................................................
3 ..........................................................................................
4 ..........................................................................................
5 ..........................................................................................
6 ..........................................................................................
7 ..........................................................................................
8 ..........................................................................................
9 ..........................................................................................
0 ..........................................................................................
1 ..........................................................................................
2 ..........................................................................................
3 ..........................................................................................
4 ..........................................................................................
5 ..........................................................................................
6 ..........................................................................................
7 ..........................................................................................
8 ..........................................................................................
9 ..........................................................................................
0 ..........................................................................................
1 ..........................................................................................
2 ..........................................................................................
3 ..........................................................................................
4 ..........................................................................................
5 ..........................................................................................
6 ..........................................................................................
7 ..........................................................................................
8 ..........................................................................................
9 ..........................................................................................
0 ..........................................................................................
1 ..........................................................................................
2 ..........................................................................................
3 ..........................................................................................
4 ..........................................................................................
5 ..........................................................................................
6 ..........................................................................................
7 ..........................................................................................
8 ..........................................................................................
9 ..........................................................................................
0 ..........................................................................................
1 ..........................................................................................
2 ..........................................................................................
3 ..........................................................................................
4 ..........................................................................................
5 ..........................................................................................
6 ..........................................................................................
7 ..........................................................................................
8 ..........................................................................................
9 ..........................................................................................
0 ..........................................................................................
1 ..........................................................................................
2 .............................................................r............................
3 ..........................................................................................
4 ..........................................................................................
5 ..........................................................................................
6 ..........................................................................................
7 ..........................................................................................
8 ..........................................................................................
9 ..........................................................................................
0 ..........................................................................................
1 ..........................................................................................
2 .........................................................................................h
3 ..........................................................................................
4 ..........................................................................................
5 ..........................................................................................
6 ..........................................................................................
7 ..........................................................................................
8 ..........................................................................................
9 ..........................................................................................

Turn = 246.
  012345678901234567890123456789012345678901234567890123456789012345678901234567890123456789
0 ..........................................................................................
1 ..........................................................................................
2 ..........................................................................................
3 ..........................................................................................
4 ..........................................................................................
5 ..........................................................................................
6 ..........................................................................................
7 ..........................................................................................
8 ..........................................................................................
9 ..........................................................................................
0 ..........................................................................................
1 ..........................................................................................
2 ..........................................................................................
3 ..........................................................................................
4 ..........................................................................................
5 ..........................................................................................
6 .........................................................................................r
7 ..........................................................................................
8 ..........................................................................................
9 ..........................................................................................
0 ..........................................................................................
1 ..........................................................................................
2 ..........................................................................................
3 ..........................................................................................
4 ..........................................................................................
5 ..........................................................................................
6 ..........................................................................................
7 ..........................................................................................
8 ..........................................................................................
9 ..........................................................................................
0 ..........................................................................................
1 ..........................................................................................
2 ..........................................................................................
3 ..........................................................................................
4 ..........................................................................................
5 ..........................................................................................
6 ..........................................................................................
7 ..........................................................................................
8 ..........................................................................................
9 ..........................................................................................
0 ..........................................................................................
1 ..........................................................................................
2 ..........................................................................................
3 ..........................................................................................
4 ..........................................................................................
5 ..........................................................................................
6 ..........................................................................................
7 ..........................................................................................
8 ..........................................................................................
9 ..........................................................................................
0 ..........................................................................................
1 ..........................................................................................
2 ..........................................................................................
3 ..........................................................................................
4 ..........................................................................................
5 ..........................................................................................
6 ..........................................................................................
7 ..........................................................................................
8 ..........................................................................................
9 ..........................................................................................
0 ..........................................................................................
1 ..........................................................................................
2 ..........................................................................................
3 ..........................................................................................
4 ..........................................................................................
5 ..........................................................................................
6 ..........................................................................................
7 ..........................................................................................
8 ..........................................................................................
9 ..........................................................................................
0 ..........................................................................................
1 ..........................................................................................
2 ..........................................................................................
3 ..........................................................................................
4 ..........................................................................................
5 ..........................................................................................
6 ..........................................................................................
7 ..........................................................................................
8 ..........................................................................................
9 ..........................................................................................
0 ..........................................................................................
1 ..........................................................................................
2 ..........................................................................................
3 ..........................................................................................
4 ..........................................................................................
5 ..........................................................................................
6 ..........................................................................................
7 ..........................................................................................
8 ...............r..........................................................................
9 .....................r....................................................................

*** Darwin 12x8 ***
Turn = 0.
  01234567
0 ........
1 ........
2 ........
3 ..f.....
4 ........
5 ......h.
6 .f......
7 ........
8 .....h..
9 ........
0 ...t....
1 .......r

Turn = 2.
  01234567
0 ........
1 ........
2 ........
3 ..f.....
4 ........
5 ........
6 .f......
7 ......h.
8 ...h....
9 ........
0 ...t....
1 .......r

Turn = 4.
  01234567
0 ........
1 ........
2 ........
3 ..f.....
4 ........
5 ........
6 .f......
7 ........
8 .h......
9 ......h.
0 ...t....
1 .......r

Turn = 6.
  01234567
0 ........
1 ........
2 ........
3 ..f.....
4 ........
5 ........
6 .f......
7 ........
8 h.......
9 ........
0 ...t..h.
1 .....r..

Turn = 8.
  01234567
0 ........
1 ........
2 ........
3 ..f.....
4 ........
5 ........
6 .f......
7 ........
8 h.......
9 ........
0 ...t....
1 ...r..h.

Turn = 10.
  01234567
0 ........
1 ........
2 ........
3 ..f.....
4 ........
5 ........
6 .f......
7 ........
8 h.......
9 ........
0 ...t....
1 .r....h.

*** Darwin 20x20 ***
Turn = 0.
  01234567890123456789
0 .....t..............
1 r...................
2 ....................
3 ...h................
4 ....................
5 ....................
6 ..h.................
7 ....................
8 .....r..........fh..
9 ...f.....t..........
0 ....................
1 ....................
2 ....................
3 ....................
4 .......f..........r.
5 ....................
6 ....................
7 .....f..............
8 ....................
9 ....................

Turn = 5.
  01234567890123456789
0 ...r.t..............
1 ....................
2 ....................
3 h...................
4 ....................
5 ....................
6 .......h............
7 ....................
8 r...............f...
9 ...f.....t..........
0 ....................
1 ....................
2 ....................
3 .................h..
4 .......f.....r......
5 ....................
6 ....................
7 .....f..............
8 ....................
9 ....................

Turn = 10.
  01234567890123456789
0 ........r...........
1 ....................
2 ....r...............
3 h...................
4 ....................
5 ....................
6 ............h.......
7 ....................
8 ................f...
9 ...f.....t..........
0 ....................
1 ....................
2 r...................
3 ....................
4 .......fr...........
5 ....................
6 ....................
7 .....f..............
8 .................h..
9 ....................

Turn = 15.
  01234567890123456789
0 .............r......
1 ....................
2 ....................
3 h...................
4 ....................
5 ....................
6 .................h..
7 ....r...............
8 ................f...
9 ...f.....t..........
0 ....................
1 ....................
2 ....................
3 ....................
4 ...rr...............
5 ....................
6 ....................
7 r....f..............
8 ....................
9 .................h..

Turn = 20.
  01234567890123456789
0 ..................r.
1 ....................
2 ....................
3 h...................
4 ....................
5 ....................
6 ...................h
7 ....................
8 ................f...
9 ...f.....t..........
0 ....................
1 ....................
2 ....r...............
3 r...................
4 ....................
5 .r..................
6 ....................
7 .....f..............
8 ....................
9 r................h..

*** Darwin 7x7 ***
Turn = 0.
  0123456
0 .......
1 .......
2 .......
3 .......
4 ......h
5 .h.....
6 .......

Turn = 100.
  0123456
0 .......
1 .......
2 .......
3 .......
4 h......
5 .......
6 .h.....

Turn = 200.
  0123456
0 .......
1 .......
2 .......
3 .......
4 h......
5 .......
6 .h.....
