20

17 5
10
t 15 0 s
f 11 1 s
t 3 4 w
r 6 1 w
f 2 4 s
r 8 3 w
t 0 2 s
r 6 2 e
f 4 2 e
h 2 2 s
827 116

4 12
13
t 0 8 e
r 2 4 e
h 1 8 w
f 1 10 e
h 1 0 w
r 1 2 w
r 0 3 s
t 0 0 s
f 3 2 w
f 0 7 n
r 2 6 w
t 2 2 s
t 1 5 s
1320 93

11 15
12
f 8 1 e
h 8 14 n
h 4 7 e
t 5 5 e
t 10 1 e
h 10 5 s
t 0 14 n
t 6 14 w
t 9 3 n
t 2 9 n
t 9 10 s
t 7 5 w
991 165

12 5
11
h 4 4 n
f 10 2 n
t 3 2 e
t 4 2 w
h 4 0 w
r 1 3 w
h 1 0 e
r 8 3 w
f 9 1 n
t 7 3 s
r 10 3 n
372 118

6 10
1
t 0 3 s
1502 173

9 8
7
h 2 2 s
h 2 6 n
h 3 3 n
f 5 6 n
t 3 2 n
f 4 7 s
h 7 5 s
1381 106

4 15
3
r 2 5 n
f 2 8 n
h 2 14 n
39 53

18 13
11
f 17 0 w
h 10 3 s
f 3 1 e
t 4 1 e
h 0 0 w
r 2 6 n
r 2 1 s
f 13 4 n
t 12 6 n
f 10 10 e
f 8 2 w
1209 102

17 16
12
t 7 7 e
f 1 3 n
t 7 4 w
r 2 2 n
f 15 5 n
h 11 4 n
f 6 10 e
h 7 10 s
h 2 14 n
r 5 5 w
f 15 3 s
f 0 1 e
779 51

14 14
13
t 10 9 e
h 9 6 e
h 12 12 w
f 6 0 s
f 11 6 n
f 9 8 n
r 8 10 n
h 10 11 e
h 4 10 s
t 0 2 e
f 12 4 e
h 4 13 e
t 3 7 n
189 126

6 5
8
f 3 4 n
f 2 1 n
f 2 2 s
f 4 2 s
h 1 3 w
r 0 3 n
h 5 3 w
t 5 4 w
695 16

16 13
4
h 4 3 e
t 15 1 n
r 3 2 e
t 4 7 w
746 145

13 14
11
f 3 3 s
f 10 4 n
h 5 9 e
h 2 7 n
t 9 12 s
r 8 1 s
f 1 12 n
r 8 0 s
r 11 12 s
h 11 4 w
r 8 8 w
1096 58

11 6
7
r 0 2 s
f 8 2 e
h 6 5 e
f 5 3 n
r 2 4 n
f 8 0 n
h 8 3 w
1220 119

9 7
6
r 8 5 e
t 4 2 e
r 0 4 n
t 5 6 e
f 3 4 e
h 0 2 s
202 18

8 18
4
r 2 1 w
t 6 6 s
f 7 11 w
h 5 16 w
1450 152

10 5
10
f 4 0 s
h 1 1 n
r 1 4 n
f 8 0 s
h 0 2 n
t 7 0 n
f 6 3 w
t 7 4 w
t 6 0 s
h 3 4 n
714 6

18 5
14
t 0 4 n
h 8 0 s
r 10 2 s
h 2 1 e
r 3 3 s
r 15 4 e
r 17 3 w
r 8 4 e
r 11 2 w
h 11 3 n
h 7 0 s
h 0 3 w
r 6 1 e
h 3 4 e
1107 52

9 14
11
t 6 12 w
t 1 4 w
r 1 9 n
h 1 10 n
t 0 0 w
r 5 4 w
h 5 0 n
t 3 0 s
r 2 1 s
r 1 2 w
r 6 6 s
438 33

8 8
6
r 6 0 s
t 6 6 w
h 0 3 n
f 2 2 w
h 1 5 w
t 0 5 s
704 104
